{
  "id": "28cf561f.d730aa",
  "type": "subflow",
  "name": "Sync Customer Batch",
  "info": "",
  "in": [
    {
      "x": 72.66677474975586,
      "y": 135.08338928222656,
      "wires": [
        {
          "id": "e2a942c7.1d56c"
        }
      ]
    }
  ],
  "out": [
    {
      "x": 1158.1630458831787,
      "y": 138.82149505615234,
      "wires": [
        {
          "id": "f19056e3.0e6fa8",
          "port": 0
        }
      ]
    }
  ],
  "flow": [
    {
      "id": "e2a942c7.1d56c",
      "type": "switch",
      "z": "28cf561f.d730aa",
      "name": "Any results?",
      "property": "payload.count",
      "rules": [
        {
          "t": "gt",
          "v": "0"
        },
        {
          "t": "else"
        }
      ],
      "checkall": "false",
      "outputs": 2,
      "x": 175.83343887329102,
      "y": 135.19450569152832,
      "wires": [
        [
          "68f517a2.970ae8"
        ],
        [
          "cd79313c.3286d"
        ]
      ]
    },
    {
      "id": "cd79313c.3286d",
      "type": "function",
      "z": "28cf561f.d730aa",
      "name": "Get search info",
      "func": "if (msg.search) {\n   msg.payload = msg.search; \n}\nelse {\n    msg.payload = {};\n}\nreturn msg;",
      "outputs": 1,
      "noerr": 0,
      "x": 834.2856369018555,
      "y": 140.00000762939453,
      "wires": [
        [
          "f19056e3.0e6fa8"
        ]
      ]
    },
    {
      "id": "f19056e3.0e6fa8",
      "type": "subflow:b2b8b80b.4d4748",
      "z": "28cf561f.d730aa",
      "name": "",
      "x": 1023.5713729858398,
      "y": 138.57143592834473,
      "wires": [
        []
      ]
    },
    {
      "id": "68f517a2.970ae8",
      "type": "subflow:260950d0.d9f6b",
      "z": "28cf561f.d730aa",
      "name": "",
      "x": 543.6667823791504,
      "y": 108.69451856613159,
      "wires": [
        [
          "cd79313c.3286d"
        ]
      ]
    }
  ]
}