{
  "id": "309005a6.cf6ffa",
  "type": "subflow",
  "name": "Get modified customers (SQL)",
  "info": "",
  "in": [
    {
      "x": 87,
      "y": 77.57142066955566,
      "wires": [
        {
          "id": "d386c7d9.2c7938"
        }
      ]
    }
  ],
  "out": [
    {
      "x": 931.5715236663818,
      "y": 78.9999771118164,
      "wires": [
        {
          "id": "4551d043.baae3",
          "port": 0
        }
      ]
    }
  ],
  "flow": [
    {
      "id": "d386c7d9.2c7938",
      "type": "MSSQL",
      "z": "309005a6.cf6ffa",
      "mssqlCN": "57b67e7.fa8498",
      "name": "Get all customers (SQL)",
      "query": "SELECT\t'CBR' AS [sourceSystem]\n\t\t,T_TIERS AS [id]\n\t\t,T_LIBELLE AS [lastName]\n\t\t,T_PRENOM AS [firstName]\n\t\t,T_EMAIL AS [email]\n\t\t,T_TELEPHONE AS [telephoneNumber]\n\t\t,T_FAX AS [fax]\n\t\t,T_TELEX AS [mobile]\n\t\t,T_TELEPHONE2 AS [phone2]\n\t\t,T_ADRESSE1 AS [addressLine1]\n\t\t,T_ADRESSE2 AS [addressLine2]\n\t\t,T_ADRESSE3 AS [addressLine3]\n\t\t,T_CODEPOSTAL AS [postcode]\n\t\t,T_VILLE AS [city]\nFROM\tTiers \nWHERE T_EMAIL is not null AND T_SOURCE_SYSTEM is null",
      "outField": "payload",
      "x": 277,
      "y": 77.57142066955566,
      "wires": [
        [
          "1b1f841.fe4e07c"
        ]
      ]
    },
    {
      "id": "1b1f841.fe4e07c",
      "type": "function",
      "z": "309005a6.cf6ffa",
      "name": "Map SQL customers to RetailOS",
      "func": "for (var i =0; i < msg.payload.length; i++) {\n    var customer = msg.payload[i];\n    customer.id = 'CBR' + customer.id;\n    customer.addresses = [];\n    customer.addresses.push(customer);\n}\n\nmsg.payload = {\n    count : msg.payload.length,\n    rows : msg.payload\n};\n\nmsg.totalResults = msg.payload.count;\ncontext.global.logger.log(node,'Search returned ' + msg.payload.rows.length +' modified results');\n\nreturn msg;",
      "outputs": 1,
      "noerr": 0,
      "x": 543,
      "y": 77.57142066955566,
      "wires": [
        [
          "4551d043.baae3"
        ]
      ]
    },
    {
      "id": "4551d043.baae3",
      "type": "function",
      "z": "309005a6.cf6ffa",
      "name": "Set source to CBR",
      "func": "msg.resultsSource = \"CBR\";\nreturn msg;",
      "outputs": 1,
      "noerr": 0,
      "x": 782.857177734375,
      "y": 78.57142639160156,
      "wires": [
        []
      ]
    }
  ]
}