{
  "id": "5fd9b2fc.a0264c",
  "type": "subflow",
  "name": "Get Customers (RetailOS)",
  "info": "",
  "in": [
    {
      "x": 31.74604558944702,
      "y": 63.666690826416016,
      "wires": [
        {
          "id": "f87d455d.0782b8"
        }
      ]
    }
  ],
  "out": [
    {
      "x": 1258.238395690918,
      "y": 66.61905860900879,
      "wires": [
        {
          "id": "9afe215f.6501e",
          "port": 0
        }
      ]
    }
  ],
  "flow": [
    {
      "id": "5dbd50eb.a242b",
      "type": "PG Connection",
      "z": "5fd9b2fc.a0264c",
      "postgresdb": "e87c75be.178388",
      "name": "Get Customers (RetailOS)",
      "output": true,
      "outputs": 1,
      "x": 808.9524383544922,
      "y": 66.2381043434143,
      "wires": [
        [
          "9afe215f.6501e"
        ]
      ]
    },
    {
      "id": "ab83b093.547c5",
      "type": "template",
      "z": "5fd9b2fc.a0264c",
      "name": "Customer Select Query",
      "field": "payload",
      "fieldType": "msg",
      "format": "handlebars",
      "template": "\nSELECT count ,\narray_to_json(array_agg(row_to_json(r))) as rows \nFROM\n (SELECT COUNT(*) FROM customers {{#search.lastModifiedDate}} WHERE created_at > '{{search.lastModifiedDate}}' {{/search.lastModifiedDate}} ) AS count, \n ( SELECT *  FROM ( SELECT \"cu\".\"id\", \"cu\".\"email\", \"cu\".\"title\",\n\"cu\".\"first_name\" AS \"firstName\", \"cu\".\"last_name\" AS \"lastName\",\n\"cu\".\"postcode\", \"cu\".\"dob\", \"cu\".\"profile_img_url\" AS \"profileImgURL\",\n\"cu\".\"telephone_number\" AS \"telephoneNumber\", \n\"cu\".\"last_visit\" AS \"lastVisit\", \"cu\".\"points\", \"cu\".\"notes\", \n\"cu\".\"external_id\" AS \"externalId\", \"cu\".\"crm_id\" AS \"crmId\", \n\"cu\".\"created_at\" AS \"createdAt\", \"cu\".\"type\" AS \"type\", \n\"cu\".\"modified_at\" AS \"modifiedAt\", \"cu\".\"details_json\" AS \"details\",\n( SELECT array_to_json(array_agg(row_to_json(d))) FROM \n( SELECT cast(\"ad\".\"id\" AS text) AS \"id\", \n\"ad\".\"address_line_1\" AS \"addressLine1\",\n\"ad\".\"address_line_2\" AS \"addressLine2\",\n\"ad\".\"company\" AS \"company\", \"ad\".\"city\" AS \"city\", \n\"ad\".\"county\" AS \"county\", \"ad\".\"country\" AS \"country\",\n\"ad\".\"postcode\" AS \"postcode\", \"ad\".\"is_default\" AS \"isDefault\", \n\"ad\".\"is_deleted\" AS \"isDeleted\", \"ad\".\"created_at\" AS \"createdAt\",\n\"ad\".\"modified_at\" AS \"modifiedAt\" FROM customer_address ca \nJOIN addresses ad ON ca.address_id = ad.id \nWHERE cu.id = ca.customer_id ) d ) AS addresses\nFROM customers cu \n{{#search.lastModifiedDate}} WHERE \"cu\".\"created_at\" > '{{search.lastModifiedDate}}' {{/search.lastModifiedDate}}\nORDER BY \"cu\".\"id\"\nLIMIT {{search.limit}} OFFSET {{search.offset}})\nAS customerData\n) AS r \nGROUP BY count.count\n\n",
      "x": 575.4763317108154,
      "y": 65.3809642791748,
      "wires": [
        [
          "5dbd50eb.a242b"
        ]
      ]
    },
    {
      "id": "f87d455d.0782b8",
      "type": "function",
      "z": "5fd9b2fc.a0264c",
      "name": "Set source to RetailOS",
      "func": "msg.resultsSource = \"Sales Assistant App\";\nreturn msg;",
      "outputs": 1,
      "noerr": 0,
      "x": 171.19057655334473,
      "y": 65.23811149597168,
      "wires": [
        [
          "ae6e026a.5192"
        ]
      ]
    },
    {
      "id": "ae6e026a.5192",
      "type": "function",
      "z": "5fd9b2fc.a0264c",
      "name": "Format search",
      "func": "\n\nfunction pgFormatDate(date) {\n  /* Via http://stackoverflow.com/questions/3605214/javascript-add-leading-zeroes-to-date */\n  function zeroPad(d) {\n    return (\"0\" + d).slice(-2)\n  }\n\n  var parsed = new Date(date)\n\n    var ymd =  [parsed.getUTCFullYear(), zeroPad(parsed.getMonth() + 1), zeroPad(parsed.getDate())].join(\"-\");\n    var time = [zeroPad(parsed.getHours()), zeroPad(parsed.getMinutes()), zeroPad(parsed.getSeconds())].join(\":\");\n  return [ymd, time].join(\" \");\n}\n\nif (msg.search.lastModifiedDate) {\n    msg.search.lastModifiedDate =  pgFormatDate(msg.search.lastModifiedDate);\n}\nreturn msg;",
      "outputs": 1,
      "noerr": 0,
      "x": 374.69051933288574,
      "y": 65.38096141815186,
      "wires": [
        [
          "ab83b093.547c5"
        ]
      ]
    },
    {
      "id": "9afe215f.6501e",
      "type": "function",
      "z": "5fd9b2fc.a0264c",
      "name": "Format output & save total results",
      "func": "msg.payload = msg.payload[0];\nif (!msg.payload) {\n    msg.payload = {\n        count : 0,\n        rows : []\n    };\n}\n\nmsg.totalResults = msg.payload.count;\ncontext.global.logger.log(node,'Search returned ' + msg.payload.rows.length +' modified results');\nreturn msg;",
      "outputs": 1,
      "noerr": 0,
      "x": 1079.9048233032227,
      "y": 66.71426105499268,
      "wires": [
        []
      ]
    }
  ]
}