{
  "id": "96781090.6987f",
  "type": "subflow",
  "name": "Get Last Sync Info",
  "info": "",
  "in": [
    {
      "x": 62.05563926696777,
      "y": 108.63487815856934,
      "wires": [
        {
          "id": "6c2cd836.93d328"
        }
      ]
    }
  ],
  "out": [
    {
      "x": 1198.0634765625,
      "y": 117.23815155029297,
      "wires": [
        {
          "id": "c5cd45bc.3a32b8",
          "port": 0
        }
      ]
    }
  ],
  "flow": [
    {
      "id": "c52705ec.3ad8f8",
      "type": "function",
      "z": "96781090.6987f",
      "name": "Set metadata",
      "func": "\nvar resume = msg.payload[0].ResumeStartDate;\n\nmsg.search =  {};\nmsg.search.startDate =  resume ? new Date(resume) : new Date();\nmsg.search.startDateString = msg.searchStart.startDate.toISOString();\nmsg.search.lastModifiedDate = msg.payload[0].LastSuccessDate ? new Date(msg.payload[0].LastSuccessDate) : undefined;\nmsg.search.offset = msg.payload[0].ResumeOffset;\n\nmsg.payload = msg.payload[0];\nreturn msg;",
      "outputs": 1,
      "noerr": 0,
      "x": 859.9205703735352,
      "y": 54.52386951446533,
      "wires": [
        [
          "c5cd45bc.3a32b8"
        ]
      ]
    },
    {
      "id": "e2e9c650.1d1638",
      "type": "MSSQL",
      "z": "96781090.6987f",
      "mssqlCN": "57b67e7.fa8498",
      "name": "Get Metadata from SQL",
      "query": "SELECT * FROM CBRImportMetadata",
      "outField": "payload",
      "x": 488.12705993652344,
      "y": 54.49202823638916,
      "wires": [
        [
          "c52705ec.3ad8f8"
        ]
      ]
    },
    {
      "id": "6c2cd836.93d328",
      "type": "switch",
      "z": "96781090.6987f",
      "name": "Select Destination",
      "property": "destinationSystem",
      "propertyType": "msg",
      "rules": [
        {
          "t": "eq",
          "v": "sql",
          "vt": "str"
        },
        {
          "t": "else"
        }
      ],
      "checkall": "true",
      "outputs": 2,
      "x": 232.85716247558594,
      "y": 108.5714373588562,
      "wires": [
        [
          "e2e9c650.1d1638"
        ],
        [
          "6373316d.9c8cd"
        ]
      ]
    },
    {
      "id": "5a42400c.a5bdc",
      "type": "soql",
      "z": "96781090.6987f",
      "name": "Get from Saleforce",
      "query": "",
      "connection": "8b133559.74ecc8",
      "x": 662.5714111328125,
      "y": 178.57142639160156,
      "wires": [
        [
          "86b5d699.794a28"
        ]
      ]
    },
    {
      "id": "86b5d699.794a28",
      "type": "function",
      "z": "96781090.6987f",
      "name": "Set metadata",
      "func": "var meta = msg.payload.records[0];\nif (!meta) {\n    msg.search =  {\n        startDate : null,\n        startDateString : null,\n        lastModifiedDate : null,\n        offset : 0\n    };\n}\nelse {\n    var resume = meta.get('resume_start_date__c');\n\n    msg.search =  {};\n    msg.search.startDate =  resume ? new Date(resume) : new Date();\n    msg.search.startDateString = msg.searchStart.startDate.toISOString();\n    msg.search.lastModifiedDate = meta.get('last_sync_date__c') ? new Date(meta.get('last_sync_date__c')) : undefined;\n    msg.search.offset = meta.get(\"resume_offset__c\");\n}\n\nreturn msg;",
      "outputs": 1,
      "noerr": 0,
      "x": 864.2856750488281,
      "y": 178.5714349746704,
      "wires": [
        [
          "c5cd45bc.3a32b8"
        ]
      ]
    },
    {
      "id": "6373316d.9c8cd",
      "type": "template",
      "z": "96781090.6987f",
      "name": "Metadata Query",
      "field": "query",
      "fieldType": "msg",
      "format": "handlebars",
      "template": "select\nName,\t\nLast_Sync_Date__c,\nResume_Offset__c,\nResume_Start_Date__c,\t\nTotal_Modified__c,\nTotal_Records__c\nfrom ExternalSyncInfo__c \nwhere ExternalName__c = '{{sourceSystem}}-{{syncObject}}'\n\n",
      "x": 458.1428756713867,
      "y": 178.57142162322998,
      "wires": [
        [
          "5a42400c.a5bdc"
        ]
      ]
    },
    {
      "id": "c5cd45bc.3a32b8",
      "type": "function",
      "z": "96781090.6987f",
      "name": "Log resume data",
      "func": "msg.searchStart.source = msg.sourceSystem;\nmsg.searchStart.destination = msg.destinationSystem;\ncontext.global.logger.log(node, msg.searchStart);\nreturn msg;",
      "outputs": 1,
      "noerr": 0,
      "x": 1067,
      "y": 117,
      "wires": [
        []
      ]
    }
  ]
}