{
  "id": "ad02822b.52fd8",
  "type": "subflow",
  "name": "Sync All Objects",
  "info": "",
  "in": [
    {
      "x": 34.52374839782715,
      "y": 46.6666955947876,
      "wires": [
        {
          "id": "3adf9497.c5206c"
        }
      ]
    }
  ],
  "out": [
    {
      "x": 1094.577548980713,
      "y": 47.9444694519043,
      "wires": [
        {
          "id": "93658698.6c9a78",
          "port": 0
        }
      ]
    }
  ],
  "flow": [
    {
      "id": "93658698.6c9a78",
      "type": "subflow:d2d468e0.2d2b98",
      "z": "ad02822b.52fd8",
      "name": "",
      "x": 944.2917766571045,
      "y": 47.37303829193115,
      "wires": [
        []
      ]
    },
    {
      "id": "3adf9497.c5206c",
      "type": "subflow:96781090.6987f",
      "z": "ad02822b.52fd8",
      "name": "",
      "x": 206.04759407043457,
      "y": 46.809556007385254,
      "wires": [
        [
          "479b368c.b864c8"
        ]
      ]
    },
    {
      "id": "e939b29d.16c65",
      "type": "subflow:4edca0f7.b1236",
      "z": "ad02822b.52fd8",
      "name": "",
      "x": 702.6558704376221,
      "y": 46.841355323791504,
      "wires": [
        [
          "93658698.6c9a78"
        ]
      ]
    },
    {
      "id": "479b368c.b864c8",
      "type": "function",
      "z": "ad02822b.52fd8",
      "name": "Clear last modified date",
      "func": "msg.search.lastModifiedDate = null;\nreturn msg;",
      "outputs": 1,
      "noerr": 0,
      "x": 455.66661262512207,
      "y": 46.77778720855713,
      "wires": [
        [
          "e939b29d.16c65"
        ]
      ]
    }
  ]
}