{
  "id": "ad02822b.52fd8",
  "type": "subflow",
  "name": "Sync Customers",
  "info": "",
  "in": [
    {
      "x": 46.428565979003906,
      "y": 150.31747245788574,
      "wires": [
        {
          "id": "ce7145eb.318eb8"
        },
        {
          "id": "f2ce0b2.f0d31f8"
        }
      ]
    }
  ],
  "out": [
    {
      "x": 1420.36328125,
      "y": 163.38096618652344,
      "wires": [
        {
          "id": "93658698.6c9a78",
          "port": 0
        },
        {
          "id": "b70463b6.48fba",
          "port": 1
        }
      ]
    }
  ],
  "flow": [
    {
      "id": "ef5849d.f10a7b8",
      "type": "subflow:ba098348.45f68",
      "z": "ad02822b.52fd8",
      "name": "",
      "x": 738.0158615112305,
      "y": 150.64291954040527,
      "wires": [
        [
          "8f7c06cb.7083f8"
        ],
        [
          "b70463b6.48fba"
        ]
      ]
    },
    {
      "id": "8f7c06cb.7083f8",
      "type": "subflow:28cf561f.d730aa",
      "z": "ad02822b.52fd8",
      "name": "",
      "x": 911.1055221557617,
      "y": 89.48420143127441,
      "wires": [
        [
          "ef5849d.f10a7b8"
        ]
      ]
    },
    {
      "id": "93658698.6c9a78",
      "type": "subflow:d2d468e0.2d2b98",
      "z": "ad02822b.52fd8",
      "name": "",
      "x": 1259.36328125,
      "y": 137.38096618652344,
      "wires": [
        []
      ]
    },
    {
      "id": "3adf9497.c5206c",
      "type": "subflow:96781090.6987f",
      "z": "ad02822b.52fd8",
      "name": "",
      "x": 391.2857360839844,
      "y": 150.03176403045654,
      "wires": [
        [
          "ef5849d.f10a7b8"
        ]
      ]
    },
    {
      "id": "f2ce0b2.f0d31f8",
      "type": "delay",
      "z": "ad02822b.52fd8",
      "name": "",
      "pauseType": "delay",
      "timeout": "1",
      "timeoutUnits": "seconds",
      "rate": "1",
      "rateUnits": "second",
      "randomFirst": "1",
      "randomLast": "5",
      "randomUnits": "seconds",
      "drop": false,
      "x": 174.28572845458984,
      "y": 150.00001335144043,
      "wires": [
        [
          "3adf9497.c5206c"
        ]
      ]
    },
    {
      "id": "ce7145eb.318eb8",
      "type": "function",
      "z": "ad02822b.52fd8",
      "name": "Stop Loop",
      "func": "msg = {};\nmsg.stopSearch = true; \n\nreturn msg;",
      "outputs": 1,
      "noerr": 0,
      "x": 401.1905517578125,
      "y": 201.4285831451416,
      "wires": [
        [
          "ef5849d.f10a7b8"
        ]
      ]
    },
    {
      "id": "30564217.cfa9be",
      "type": "comment",
      "z": "ad02822b.52fd8",
      "name": "Ensure any current loops are stopped before starting new one",
      "info": "",
      "x": 274.28570556640625,
      "y": 252.85715579986572,
      "wires": []
    },
    {
      "id": "b70463b6.48fba",
      "type": "function",
      "z": "ad02822b.52fd8",
      "name": "Did reach end?",
      "func": "if (msg.search.offset + msg.batchSize >= msg.totalResults) {\n    return [msg, null];\n} else {\n    return [null, msg];\n}\n",
      "outputs": "2",
      "noerr": 0,
      "x": 1040.8333129882812,
      "y": 156.333327293396,
      "wires": [
        [
          "93658698.6c9a78"
        ],
        []
      ]
    }
  ]
}