{
  "id": "ae83554f.517ca8",
  "type": "subflow",
  "name": "Get modified orders (RetailOS)",
  "info": "",
  "in": [
    {
      "x": 48.000003814697266,
      "y": 45.250004291534424,
      "wires": [
        {
          "id": "f72e1564.08d1e8"
        }
      ]
    }
  ],
  "out": [
    {
      "x": 1014.4999771118164,
      "y": 46.1785774230957,
      "wires": [
        {
          "id": "5e29c4df.a1d63c",
          "port": 0
        }
      ]
    }
  ],
  "flow": [
    {
      "id": "5e29c4df.a1d63c",
      "type": "function",
      "z": "ae83554f.517ca8",
      "name": "Format output & save total results",
      "func": "msg.payload = msg.payload[0];\n\nif (!msg.payload) {\n    msg.payload = {\n        count : 0,\n        rows : []\n    };\n}\n\nmsg.totalResults = msg.payload.count;\ncontext.global.logger.log(node,'Search returned ' + msg.payload.rows.length +' modified results');\nreturn msg;",
      "outputs": 1,
      "noerr": 0,
      "x": 816.9999694824219,
      "y": 45.66665840148926,
      "wires": [
        []
      ]
    },
    {
      "id": "b7a8c169.48574",
      "type": "PG Connection",
      "z": "ae83554f.517ca8",
      "postgresdb": "e87c75be.178388",
      "name": "Query RetailOS",
      "output": true,
      "outputs": 1,
      "x": 564.3333282470703,
      "y": 45.99999809265137,
      "wires": [
        [
          "5e29c4df.a1d63c"
        ]
      ]
    },
    {
      "id": "71093146.8ef6d",
      "type": "template",
      "z": "ae83554f.517ca8",
      "name": "Latest Orders Query",
      "field": "payload",
      "fieldType": "msg",
      "format": "handlebars",
      "template": "SELECT count ,\narray_to_json(array_agg(row_to_json(r))) as rows \nFROM\n (SELECT COUNT(*) FROM orders {{#search.lastModifiedDate}} WHERE created_at > '{{search.lastModifiedDate}}' {{/search.lastModifiedDate}} ) AS count,\n(SELECT orders.id, orders.created_at, orders.price_paid, orders.customer_id, \norders.store_id, stores.name as store_name, orders.user_id, users.first_name as user_first_name, \nusers.last_name as user_last_time \nFROM orders JOIN users on users.id = orders.user_id JOIN stores on stores.id = orders.store_id\nWHERE created_at > '{{search.lastModifiedDate}}'\n{{#search.limit}} LIMIT {{search.limit}}{{/search.limit}}\n{{#search.offset}} OFFSET {{search.offset}}{{/search.offset}}) as r\nGROUP BY count.count",
      "x": 353.49999618530273,
      "y": 45.499999046325684,
      "wires": [
        [
          "b7a8c169.48574"
        ]
      ]
    },
    {
      "id": "f72e1564.08d1e8",
      "type": "function",
      "z": "ae83554f.517ca8",
      "name": "Format date",
      "func": "\n\nfunction pgFormatDate(date) {\n  /* Via http://stackoverflow.com/questions/3605214/javascript-add-leading-zeroes-to-date */\n  function zeroPad(d) {\n    return (\"0\" + d).slice(-2)\n  }\n\n  var parsed = new Date(date)\n\n    var ymd =  [parsed.getUTCFullYear(), zeroPad(parsed.getMonth() + 1), zeroPad(parsed.getDate())].join(\"-\");\n    var time = [zeroPad(parsed.getHours()), zeroPad(parsed.getMinutes()), zeroPad(parsed.getSeconds())].join(\":\");\n  return [ymd, time].join(\" \");\n}\n\nmsg.search.lastModifiedDate =  pgFormatDate(msg.search.lastModifiedDate);\nreturn msg;",
      "outputs": 1,
      "noerr": 0,
      "x": 154.64286041259766,
      "y": 45.10713768005371,
      "wires": [
        [
          "71093146.8ef6d"
        ]
      ]
    }
  ]
}