{
  "id": "ba098348.45f68",
  "type": "subflow",
  "name": "Get Next Modified Customers from Source",
  "info": "Gets the next set of customers from the RetailOS Api that have been modified since the date specified by msg.searchStart.lastModifiedDate\n\nmsg.searchStart can also be used to specify:\n''\n{\n    lastModifiedDate - the date to check against (returns only objects updated since this date)\n    offset - the overall customer record number to start the search at (supports resuming)\n    startDate - the original start date of this search (supports resuming)\n}\n''\n\nOutput 1 returns the customers in repeated lists of modified customers in the form:\n'' \n{\ncount :\nrows : [...]\n}\n''\n\nOutput 2 returns once all modified customers have been returned on output 1. \nOutput 2 returns the total number of modified customers as the msg.payload",
  "in": [
    {
      "x": 38.559518814086914,
      "y": 94.98809623718262,
      "wires": [
        {
          "id": "da20b21a.25df5"
        }
      ]
    }
  ],
  "out": [
    {
      "x": 1102.6946487426758,
      "y": 77.66672134399414,
      "wires": [
        {
          "id": "a2f8589b.5d07a8",
          "port": 0
        },
        {
          "id": "6bb5731c.944a8c",
          "port": 0
        }
      ]
    },
    {
      "x": 354.04761505126953,
      "y": 146.0912914276123,
      "wires": [
        {
          "id": "da20b21a.25df5",
          "port": 1
        }
      ]
    }
  ],
  "flow": [
    {
      "id": "edda1357.1225f",
      "type": "function",
      "z": "ba098348.45f68",
      "name": "Set next search set",
      "func": "\nif (!msg.search) {\n    msg.search = {\n        term : '',\n        limit : msg.batchSize? msg.batchSize : 500,\n        offset : 0,\n        startDate : new Date().toISOString(),\n        lastModifiedDate : new Date('2000-01-01')\n    };\n\n    if (msg.searchStart) {\n       if (msg.searchStart.offset) { msg.search.offset = msg.searchStart.offset;  }\n       if (msg.searchStart.limit) { msg.search.limit = msg.searchStart.limit;  }\n       if (msg.searchStart.startDate) { msg.search.startDate = msg.searchStart.startDate.toISOString();  }\n        if (msg.searchStart.lastModifiedDate ) { msg.search.lastModifiedDate = msg.searchStart.lastModifiedDate;}\n        \n    }\n    \n} else {\n    msg.search.offset += msg.search.limit;\n}\n\ncontext.global.logger.log(node,'Fetching ' + msg.search.offset + '-' + (msg.search.offset + msg.search.limit) + ' of ' + msg.totalResults +  ' results' );\n\nmsg.payload = msg.search;\n\nreturn msg;",
      "outputs": 1,
      "noerr": 0,
      "x": 427.74603271484375,
      "y": 90.42859077453613,
      "wires": [
        [
          "a8818041.577e8"
        ]
      ]
    },
    {
      "id": "da20b21a.25df5",
      "type": "function",
      "z": "ba098348.45f68",
      "name": "Should stop iterating?",
      "func": "\n//Below allows for the 'stop' command to come in on a different\n// flow msg and then get applied to all flow msg's\nif (msg.stopSearch) {\n    context.stopSearch = true;\n    return null;\n}\n\n//If the msg is new - not part of the iterate loop \n//(ie. no msg.search defined) and stopSearch has not been declared \n//then carry on.\n\n//Once complete, send to output 2, otherwise send to output 1\nif (!msg.search || (!context.stopSearch && (msg.search.offset + msg.search.limit < msg.totalResults))) {\n    context.stopSearch = false;\n    return [msg, null];\n} else {\n    \n        \n    if (context.stopSearch) {\n        msg.stopSearch = context.stopSearch;\n        context.global.logger.log(node,'Search stopped via manual request');\n    }\n    \n    msg.payload = msg.totalChanges;\n    \n    context.stopSearch = false;\n    return [null, msg];\n}",
      "outputs": "2",
      "noerr": 0,
      "x": 178.28173828125,
      "y": 93.82144355773926,
      "wires": [
        [
          "edda1357.1225f"
        ],
        []
      ]
    },
    {
      "id": "a2f8589b.5d07a8",
      "type": "subflow:5fd9b2fc.a0264c",
      "z": "ba098348.45f68",
      "name": "",
      "x": 895.4324493408203,
      "y": 111.2380964756012,
      "wires": [
        []
      ]
    },
    {
      "id": "6bb5731c.944a8c",
      "type": "subflow:309005a6.cf6ffa",
      "z": "ba098348.45f68",
      "name": "",
      "x": 905.8571395874023,
      "y": 59.999996185302734,
      "wires": [
        []
      ]
    },
    {
      "id": "a8818041.577e8",
      "type": "switch",
      "z": "ba098348.45f68",
      "name": "Which source?",
      "property": "sourceSystem",
      "propertyType": "msg",
      "rules": [
        {
          "t": "eq",
          "v": "sql",
          "vt": "str"
        },
        {
          "t": "else"
        }
      ],
      "checkall": "true",
      "outputs": 2,
      "x": 628.5713882446289,
      "y": 91.42857551574707,
      "wires": [
        [
          "6bb5731c.944a8c"
        ],
        [
          "a2f8589b.5d07a8"
        ]
      ]
    }
  ]
}